{
    "name": "Administrador",

    "permissions": {

        "AdminUsers": {
            "Users": {
                "add": "",
                "edit": "",
                "delete": ""
            },
            "roles": {
                "add": "",
                "edit": ""
            }
        },

        "Assets": {
            "storehouse": {
                "add": "",
                "edit": ""
            },
            "asset": {
                "rent": "",
                "sale": ""
            }
        },

        "Locations": {
            "location": {
                "add": "",
                "edit": "",
                "delete": ""
            },
            "assignments": {
                "add": "",
                "edit": "",
                "delete": ""
            },
            "cession": {
                "add": "",
                "edit": "",
                "delete": ""
            }
        },

        "Clients": {
            "Client": {
                "add": "",
                "edit": "",
                "delete": ""
            }
        },

        "HumanResources": {
            "HumanResource" : {
                "add": "",
                "edit": "",
                "delete": ""
            }
        }
    }
}